{
    "name": "python3-mistletoe",
    "buildsystem": "simple",
    "build-commands": [
        "pip3 install --no-index --find-links=\"file://${PWD}\" --prefix=${FLATPAK_DEST} mistletoe"
    ],
    "sources": [
        {
            "type": "file",
            "url": "https://files.pythonhosted.org/packages/84/23/0c9c856ef73b58d8d2e40b2d028cc39cdb3a3f0b91775d4d4b7451e41f94/mistletoe-0.7.2-py3-none-any.whl",
            "sha256": "3e2d31b2fa6231ea2ee46981274ebac8d5e5736e3aad2d1cd449e2c053b7023b"
        }
    ]
}